<?xml version="1.0" encoding="utf-8"?>
<!-- Generator: Adobe Illustrator 16.0.0, SVG Export Plug-In . SVG Version: 6.00 Build 0)  -->
<!DOCTYPE svg PUBLIC "-//W3C//DTD SVG 1.1//EN" "http://www.w3.org/Graphics/SVG/1.1/DTD/svg11.dtd">
<svg version="1.1" id="圖層_1" xmlns="http://www.w3.org/2000/svg" xmlns:xlink="http://www.w3.org/1999/xlink" x="0px" y="0px"
	 width="24px" height="24px" viewBox="0 0 24 24" enable-background="new 0 0 24 24" xml:space="preserve">
<g>
	<rect y="18.871" fill="#FFFFFF" width="3.126" height="5.044"/>
	<rect x="5.219" y="15.741" fill="#FFFFFF" width="3.126" height="8.174"/>
	<rect x="10.437" y="10.522" fill="#FFFFFF" width="3.125" height="13.393"/>
	<rect x="15.656" y="5.304" fill="#FFFFFF" width="3.126" height="18.611"/>
	<rect x="20.874" y="0.085" fill="#FFFFFF" width="3.126" height="23.83"/>
</g>
</svg>
