<?xml version="1.0" encoding="utf-8"?>
<!-- Generator: Adobe Illustrator 16.0.0, SVG Export Plug-In . SVG Version: 6.00 Build 0)  -->
<!DOCTYPE svg PUBLIC "-//W3C//DTD SVG 1.1//EN" "http://www.w3.org/Graphics/SVG/1.1/DTD/svg11.dtd">
<svg version="1.1" id="圖層_1" xmlns="http://www.w3.org/2000/svg" xmlns:xlink="http://www.w3.org/1999/xlink" x="0px" y="0px"
	 width="24px" height="24px" viewBox="-4 -4 24 24" enable-background="new -4 -4 24 24" xml:space="preserve">
<g>
	<path fill="#FFFFFF" d="M-2.313-0.402l9.461,9.46C7.373,9.283,7.676,9.406,8,9.406s0.627-0.123,0.853-0.349l9.46-9.46H-2.313z"/>
	<g>
		<path fill="#FFFFFF" d="M11.618,8.021L9.736,9.904c-0.468,0.465-1.082,0.697-1.697,0.697c-0.615,0-1.23-0.232-1.696-0.7
			L4.421,7.979l-7.918,7.919c-0.054,0.053-0.105,0.096-0.156,0.141c0.219,0.222,0.523,0.363,0.859,0.363h21.59
			c0.337,0,0.642-0.142,0.858-0.363c-0.05-0.045-0.103-0.088-0.155-0.141L11.618,8.021z"/>
	</g>
	<g>
		<path fill="#FFFFFF" d="M-3.459,0.1c-0.062-0.06-0.102-0.118-0.153-0.178C-3.849,0.144-4,0.456-4,0.804v13.908l7.578-7.577
			L-3.459,0.1z"/>
		<path fill="#FFFFFF" d="M19.534,0.1l-7.072,7.076L20,14.715V0.804c0-0.329-0.132-0.624-0.343-0.842
			C19.615,0.008,19.584,0.054,19.534,0.1z"/>
	</g>
</g>
</svg>
